{
    "type": "minecraft:crafting_shaped",
    
    "pattern":
    [
        "R R",
        "RRR",
		"RRR"
    ],
    
    "key":
    {
        "R":
        {
            "item": "mo:ruby"
        }
    },
    
    "result":
    {
        "item": "mo:ruby_chestplate",
        "count": 1
    }
}