{
    "type": "minecraft:crafting_shaped",
    
    "pattern":
    [
        "RRR",
        "R R",
		"R R"
    ],
    
    "key":
    {
        "R":
        {
            "item": "mo:sapphire"
        }
    },
    
    "result":
    {
        "item": "mo:sapphire_leggings",
        "count": 1
    }
}